%YAML 1.1
%TAG !u! tag:unity3d.com,2011:
--- !u!114 &11400000
MonoBehaviour:
  m_ObjectHideFlags: 0
  m_CorrespondingSourceObject: {fileID: 0}
  m_PrefabInstance: {fileID: 0}
  m_PrefabAsset: {fileID: 0}
  m_GameObject: {fileID: 0}
  m_Enabled: 1
  m_EditorHideFlags: 0
  m_Script: {fileID: 11500000, guid: 096b1372f9841724c8def38cd34f1eda, type: 3}
  m_Name: Security Network Data
  m_EditorClassIdentifier: 
  lastDetectedTime: 65.986664
  timeBeforeUndetected: 5
  targetTOffset: {x: 0, y: 1, z: 0}
  targetTransform: {fileID: 0}
  targetTag: Player
  obstacleMask:
    serializedVersion: 2
    m_Bits: 12800
  undetectedColor: {r: 0, g: 3.9999995, b: 0.16753925, a: 0}
  detectedColor: {r: 3.9999995, g: 0, b: 0, a: 0}
  OnDetectionStateChanged:
    m_PersistentCalls:
      m_Calls: []
